{
	"IcoMoonType": "selection",
	"icons": [
		{
			"icon": {
				"paths": [
					"M123.904 201.728h776.192v103.424h-776.192v-103.424z",
					"M123.904 459.776h776.192v103.424h-776.192v-103.424z",
					"M123.904 718.848h776.192v103.424h-776.192v-103.424z"
				],
				"attrs": [],
				"isMulticolor": false,
				"grid": 0,
				"tags": [
					"ico-menu"
				]
			},
			"attrs": [],
			"properties": {
				"order": 2,
				"id": 3,
				"prevSize": 64,
				"code": 58880,
				"name": "ico-menu"
			},
			"setIdx": 0,
			"setId": 0,
			"iconIdx": 0
		},
		{
			"icon": {
				"paths": [
					"M904.192 543.744v-134.144c0-50.176 0-93.184 0-110.592l-167.936 116.736 167.936 128z",
					"M119.808 538.624v-134.144c0-50.176 0-93.184 0-110.592l166.912 116.736-166.912 128z",
					"M513.024 484.352l344.064-241.664h-688.128z",
					"M665.6 448.512l-140.288 98.304c-3.072 2.048-8.192 4.096-12.288 4.096s-9.216-1.024-12.288-4.096l-139.264-98.304-234.496 179.2c-2.048 1.024-4.096 2.048-6.144 3.072v2.048l1.024 148.48h782.336l1.024-148.48v-3.072l-239.616-181.248z"
				],
				"attrs": [],
				"isMulticolor": false,
				"grid": 0,
				"tags": [
					"ico-reservation"
				]
			},
			"attrs": [],
			"properties": {
				"order": 3,
				"id": 2,
				"prevSize": 64,
				"code": 58881,
				"name": "ico-reservation"
			},
			"setIdx": 0,
			"setId": 0,
			"iconIdx": 1
		},
		{
			"icon": {
				"paths": [
					"M512 110.592c-221.184 0-401.408 179.2-401.408 401.408 0 221.184 179.2 401.408 401.408 401.408 221.184 0 401.408-179.2 401.408-401.408 0-221.184-180.224-401.408-401.408-401.408zM607.232 388.096h-60.416c-7.168 0-15.36 9.216-15.36 21.504v44.032h75.776v62.464h-75.776v186.368h-71.68v-186.368h-64.512v-62.464h65.536v-36.864c0-52.224 36.864-95.232 86.016-95.232h60.416v66.56z"
				],
				"attrs": [],
				"isMulticolor": false,
				"grid": 0,
				"tags": [
					"ico-fb"
				]
			},
			"attrs": [],
			"properties": {
				"order": 4,
				"id": 1,
				"prevSize": 64,
				"code": 58882,
				"name": "ico-fb"
			},
			"setIdx": 0,
			"setId": 0,
			"iconIdx": 2
		}
	],
	"height": 1024,
	"metadata": {
		"name": "icomoon"
	},
	"preferences": {
		"showGlyphs": true,
		"showQuickUse": true,
		"showQuickUse2": true,
		"showSVGs": true,
		"fontPref": {
			"prefix": "icon-",
			"metadata": {
				"fontFamily": "icomoon"
			},
			"metrics": {
				"emSize": 1024,
				"baseline": 6.25,
				"whitespace": 50
			},
			"embed": false
		},
		"imagePref": {
			"prefix": "icon-",
			"png": true,
			"useClassSelector": true,
			"color": 4473924,
			"bgColor": 16777215
		},
		"historySize": 100
	}
}